{
    "type": "object",
    "properties": {
        "source" : {
            "type" : "string"
        },
        "request_id" : {
            "type" : "string"
        },
        "groups": {
            "type": "array",
            "minItems": 1,
            "items": [
                {
                    "type": "object",
                    "properties": {
                        "name": {
                            "type": "string"
                        },
                        "share": {
                            "type": "integer"
                        }
                    }
                }
            ]
        },
        "kpis": {
            "type": "array",
            "minItems": 1,
            "items": {
                "type": "object",
                "properties": {
                    "services": {
                        "type": "string"
                    },
                    "kpi_names": {
                        "type": "array",
                        "items": [
                            {
                                "type": "object",
                                "properties": {
                                    "name": {
                                        "type": "string"
                                    }
                                }
                            },
                            {
                                "type": "object",
                                "properties": {
                                    "name": {
                                        "type": "string"
                                    }
                                }
                            }
                        ]
                    }
                }
            }
        },
        "plans": {
            "type": "array",
            "minItems": 1,
            "items": [
                {
                    "type": "object",
                    "properties": {
                        "plan_ref": {
                            "type": "string"
                        },
                        "policies": {
                            "type": "array",
                            "items": [
                                {
                                    "type": "object",
                                    "properties": {
                                        "group": {
                                            "type": "string"
                                        },
                                        "policy": {
                                            "type": "string"
                                        },
                                        "parameters": {
                                            "type": "object",
                                            "properties": {
                                                "limit": {
                                                    "type": "integer"
                                                },
                                                "services": {
                                                    "type": "array",
                                                    "items": [
                                                        {
                                                            "type": "string"
                                                        },
                                                        {
                                                            "type": "string"
                                                        }
                                                    ]
                                                }
                                            }
                                        }
                                    }
                                }
                            ]
                        }
                    }
                }
            ]
        }
    }
}