{
        "elapsed_time": 1.816,
        "kpis": [{
                "kpi_name": "vfr",
                "delta_value": -16.74565075375551,
                "value_type": "per_cent",
                "weighted_delta_value": 0.6293606656341012
        }, {
                "kpi_name": "va",
                "delta_value": 60.12483311478973,
                "value_type": "per_cent",
                "weighted_delta_value": 20.92345743934315
        }],
        "tested_plans": 2045,
        "date": "2015-12-02 17:56:28",
        "plan": [{
                "policy": "bandwidth_throttling",
                "group": "gold",
                "parameters": {
                        "limit": 1000
                }
        }, {
                "policy": "wifi",
                "group": "silver_domestic"
        }, {
                "policy": "to3g",
                "group": "silver_corporate"
        }, {
                "policy": "to3g",
                "group": "bronze_domestic"
        }]
}