{
    "groups": [
        {
            "name": "gold",
            "share": 52
        },
        {
            "name": "silver_domestic",
            "share": 48
        }
    ],
    "kpis": [
        {
            "service": "video",
            "kpi_names": [
                {
                    "name": "video_accessibility"
                }
            ]
        }
    ],
    "plans": [
        {
            "plan_ref": "Plan #1",
            "policies": [
                {
                    "group": "gold",
                    "policy": "wifi"
                },
                {
                    "group": "silver_domestic",
                    "policy": "traffic_gating",
                    "parameters": {
                        "services": [
                            "video"
                        ]
                    }
                }
            ]
        },
        {
            "plan_ref": "Plan #2",
            "policies": [
                {
                    "group": "gold",
                    "policy": "video_acceleration"
                },
                {
                    "group": "silver_domestic",
                    "policy": "bandwidth_throttling",
                    "parameters": {
                        "limit": 1000
                    }
                }
            ]
        }
    ],
    "source": "simulator"
}